<?xml version="1.0" encoding="utf-8"?>
<!-- Generator: Adobe Illustrator 21.1.0, SVG Export Plug-In . SVG Version: 6.00 Build 0)  -->
<svg version="1.1" xmlns="http://www.w3.org/2000/svg" xmlns:xlink="http://www.w3.org/1999/xlink" x="0px" y="0px"
	 viewBox="0 0 1875 1500" style="enable-background:new 0 0 1875 1500;" xml:space="preserve">
<style type="text/css">
	.st0{display:none;}
	.st1{display:inline;fill:#F7EF74;}
	.st2{fill:#A5A8AD;}
	.st3{fill:#949698;}
	.st4{fill:#231D1F;}
	.st5{fill:#B7B8BD;}
	.st6{fill:#E7E8E8;}
</style>
<g id="Layer_2" class="st0">
	<rect x="0" y="0" class="st1" width="1875" height="1500"/>
</g>
<g id="Layer_1">
	<g>
		<path class="st2" d="M1158.8,920.2l-220.9-30.3l-220.9,30.3c0,0-156.4,51.1-118.1,217c0,0,19.1-20.7,28.7-27.1
			c0,0-19.1,43.1,49.5,87.8c68.6,44.7,212.1,47.9,260.8,22.3c48.7,25.5,192.2,22.3,260.8-22.3c68.6-44.7,49.5-87.8,49.5-87.8
			c9.6,6.4,28.7,27.1,28.7,27.1C1315.2,971.2,1158.8,920.2,1158.8,920.2z"/>
		<g>
			<path class="st3" d="M823.9,1235.3c11.3-27.4-13.7-53.6-34.9-66.9c-22.6-14.2-43.4-29.7-61.4-50.2c-8-9.2-18.4-33.2-32-35
				c-11.3-1.5-20.9,2.4-11.1,29.7c-15.9-7.6-60.2-20.6-40.2,12.3c-22.1-0.9-44.5,15.1-38.1,40.1c5.6,21.8,28,29.7,39.7,44.4
				c-25,6.7,25.5,38.3,32.2,41.6c20.4,10.1,50.2,19,72.8,20.2C777.1,1272.9,813,1261.7,823.9,1235.3z"/>
			<path class="st4" d="M775.2,1217.6c3.6,38-55.3,31.9-68.9,7.9c-10.1-17.9,2.1-39.8,20.8-45.3
				C752.9,1172.6,772.9,1192.8,775.2,1217.6z"/>
			<path class="st4" d="M705.3,1129.8c13.4,3.8,20.1,41.6-2.8,21.9C694,1144.5,686.2,1124.3,705.3,1129.8z"/>
			<path class="st4" d="M699.4,1170c-0.5,5.6-10.1,4.1-13.5,2.7c-5-2.1-8.9-7.4-12.1-11.6c-5.3-6.9-7.3-16.6,5.1-11.5
				C684,1151.7,700,1163.3,699.4,1170z"/>
			<path class="st4" d="M667.3,1196.2c14.9,4,10.1-10.6,1.4-15.3c-5.9-3.3-10.8-8.5-17-11.3c-5.8-2.6-15-3.4-11.3,5.5
				C644.3,1184.2,657.7,1193.6,667.3,1196.2z"/>
		</g>
		<path class="st4" d="M829.7,1217.8c0,0-54.1,0-57,55.4c0,0-16,21.9,0,35c16,13.1,54-43.8,71.5-45.2c17.5-1.5,51,22.4,62.7,1
			c11.7-21.4-24.8-46.2-45.2-46.2C841.2,1217.8,829.7,1217.8,829.7,1217.8z"/>
		<path class="st5" d="M667.2,748.7c0,0-61.3,76.8-14.6,235.3c46.7,158.5,103.8,196.9,103.8,196.9l5.7-15.6c0,0,28.3,66.1,56.5,75.8
			c28.2,9.7,67.3-5.8,57.6-23.3c-9.7-17.5-43.4-55.9-46.5-96.7c0,0,8.6,14.6,22.2,23.3c0,0-23-63.2-22.2-101.1c0,0,3.7,7.8,18.3,7.8
			c0,0-37.2-78.2-39.5-149c-2.3-70.8-6.7-85.4-51.7-119.4C711.9,748.7,667.2,748.7,667.2,748.7z"/>
		<g>
			<path class="st3" d="M1051.8,1235.3c-11.3-27.4,13.7-53.6,34.9-66.9c22.6-14.2,43.4-29.7,61.4-50.2c8-9.2,18.4-33.2,32-35
				c11.3-1.5,20.9,2.4,11.1,29.7c15.9-7.6,60.2-20.6,40.2,12.3c22.1-0.9,44.5,15.1,38.1,40.1c-5.6,21.8-28,29.7-39.7,44.4
				c25,6.7-25.5,38.3-32.2,41.6c-20.4,10.1-50.2,19-72.8,20.2C1098.6,1272.9,1062.7,1261.7,1051.8,1235.3z"/>
			<path class="st4" d="M1100.5,1217.6c-3.6,38,55.3,31.9,68.9,7.9c10.1-17.9-2.1-39.8-20.8-45.3
				C1122.8,1172.6,1102.8,1192.8,1100.5,1217.6z"/>
			<path class="st4" d="M1170.5,1129.8c-13.4,3.8-20.1,41.6,2.8,21.9C1181.7,1144.5,1189.6,1124.3,1170.5,1129.8z"/>
			<path class="st4" d="M1176.3,1170c0.5,5.6,10.1,4.1,13.5,2.7c5-2.1,8.9-7.4,12.1-11.6c5.3-6.9,7.3-16.6-5.1-11.5
				C1191.8,1151.7,1175.8,1163.3,1176.3,1170z"/>
			<path class="st4" d="M1208.5,1196.2c-14.9,4-10-10.6-1.4-15.3c5.9-3.3,10.8-8.5,17-11.3c5.8-2.6,15-3.4,11.3,5.5
				C1231.4,1184.2,1218.1,1193.6,1208.5,1196.2z"/>
		</g>
		<path class="st4" d="M1046,1217.8c0,0,54.1,0,57,55.4c0,0,16,21.9,0,35c-16,13.1-54-43.8-71.5-45.2c-17.5-1.5-51,22.4-62.7,1
			c-11.7-21.4,24.8-46.2,45.2-46.2C1034.5,1217.8,1046,1217.8,1046,1217.8z"/>
		<path class="st5" d="M1208.5,748.7c0,0,61.3,76.8,14.6,235.3c-46.7,158.5-103.8,196.9-103.8,196.9l-5.7-15.6
			c0,0-28.3,66.1-56.5,75.8c-28.2,9.7-67.3-5.8-57.6-23.3c9.7-17.5,43.4-55.9,46.5-96.7c0,0-8.6,14.6-22.2,23.3
			c0,0,23-63.2,22.2-101.1c0,0-3.7,7.8-18.3,7.8c0,0,37.2-78.2,39.5-149c2.3-70.8,6.7-85.4,51.7-119.4
			C1163.8,748.7,1208.5,748.7,1208.5,748.7z"/>
		<path class="st6" d="M1262,805.1c-16.5-132.2-114.7-200.3-114.7-200.3L937.9,702l-209.4-97.2c0,0-98.2,68.1-114.7,200.3
			c0,0,16.5-22.4,32.1-29.2c0,0-14.6,31.1-4.9,76.8c0,0,28.2-46.7,61.3-60.3c0,0,29.2,116.7,106,165.3c0,0-10.2-44.7-4.6-64.2
			c0,0,49.1,91.4,134.3,137.1c85.2-45.7,134.3-137.1,134.3-137.1c5.6,19.4-4.6,64.2-4.6,64.2c76.8-48.6,106-165.3,106-165.3
			c33.1,13.6,61.3,60.3,61.3,60.3c9.7-45.7-4.9-76.8-4.9-76.8C1245.5,782.7,1262,805.1,1262,805.1z"/>
		<g>
			<ellipse class="st5" cx="932.1" cy="547.2" rx="321" ry="297.5"/>
			<path class="st5" d="M852.4,290.5c0,0-234.4-250.4-393.3,38.5c0,0,41.7-20.9,67.4-20.9c0,0-62.6,30.5-57.8,152.5
				c0,0,22.5-51.4,57.8-73.8c0,0-48.2,59.4-20.9,152.5c0,0,14.4-49.8,38.5-65.8c0,0,17.7,80.3,91.5,83.5
				c73.8,3.2,86.7-41.7,86.7-41.7L852.4,290.5z"/>
			<path class="st6" d="M634.7,435c18.3-41.6,46.4-78.5,81.8-108.2c-28.9-25.6-85.6-59-149.8-7.4c0,0,31,3.2,44.4,14.4
				c0,0-50.8,8-58.9,67.4c0,0,17.7-16.1,49.8-12.8c0,0-33.7,27.3-32.1,56.2C569.9,444.6,604.8,432.4,634.7,435z"/>
			<path class="st5" d="M1022.6,290.5c0,0,234.4-250.4,393.3,38.5c0,0-41.7-20.9-67.4-20.9c0,0,62.6,30.5,57.8,152.5
				c0,0-22.5-51.4-57.8-73.8c0,0,48.2,59.4,20.9,152.5c0,0-14.4-49.8-38.5-65.8c0,0-17.7,80.3-91.5,83.5
				c-73.8,3.2-86.7-41.7-86.7-41.7L1022.6,290.5z"/>
			<path class="st6" d="M1240.3,435c-18.3-41.6-46.4-78.5-81.8-108.2c28.9-25.6,85.6-59,149.8-7.4c0,0-31,3.2-44.4,14.4
				c0,0,50.8,8,58.9,67.4c0,0-17.7-16.1-49.8-12.8c0,0,33.7,27.3,32.1,56.2C1305.1,444.6,1270.2,432.4,1240.3,435z"/>
			<path class="st4" d="M761.7,595.5c11.5,0,20.9-13.7,20.9-30.5c0-16.8-9.3-30.5-20.9-30.5c-11.5,0-24.1,11.6-24.1,28.5
				c0,2.6,0,8,0,8c4.4,56.6,52.4,24.5,52.4,24.5C775.1,603.5,761.7,595.5,761.7,595.5z"/>
			<path class="st4" d="M1102.6,595.5c-11.5,0-20.9-13.7-20.9-30.5c0-16.8,9.3-30.5,20.9-30.5c11.5,0,24.1,11.6,24.1,28.5
				c0,2.6,0,8,0,8c-4.4,56.6-52.4,24.5-52.4,24.5C1089.2,603.5,1102.6,595.5,1102.6,595.5z"/>
			<path class="st4" d="M932.1,573c0,0-57.3,46.6-57.3,109.2c0,62.6,43.9,59.4,57.3,59.4c13.4,0,57.3,3.2,57.3-59.4
				C989.4,619.6,932.1,573,932.1,573z"/>
			<path class="st4" d="M879.5,787.6c-17.1,0-29.8-4.6-37.6-13.8c-9.7-11.4-7.9-25.1-7.7-26.6c0.5-3.1,3.2-5.5,6.4-5.5
				c0.3,0,0.7,0,1,0.1c1.7,0.3,3.2,1.2,4.2,2.6c1,1.4,1.4,3.1,1.2,4.8l-0.3,1.9l0.2,0.2c0,3.1,0.6,9.2,5,14.3c5.2,5.9,14.7,9,27.5,9
				c37.9,0,44.1-43.3,44.3-45.1c0.4-3.2,3.2-5.7,6.4-5.7c0.3,0,0.6,0,0.9,0.1c1.7,0.2,3.3,1.1,4.3,2.5c1.1,1.4,1.5,3.1,1.3,4.8
				C934.1,750.7,918.9,787.6,879.5,787.6z"/>
			<path class="st4" d="M983.8,787.6c-39.3,0-54.6-36.9-57.2-56.4c-0.5-3.6,2-6.8,5.6-7.3c0.3,0,0.6-0.1,0.9-0.1
				c3.2,0,6,2.4,6.4,5.6c0.2,1.8,6.4,45.1,44.3,45.1c12.8,0,22.3-3.1,27.5-9c4.4-5,5-11.1,5-14.3l0.2-0.2l-0.3-1.9
				c-0.3-1.7,0.1-3.4,1.2-4.8c1-1.4,2.5-2.3,4.2-2.6c0.3-0.1,0.7-0.1,1-0.1c3.1,0,5.9,2.4,6.4,5.5c0.2,1.5,2.1,15.2-7.7,26.6
				C1013.6,783,1000.9,787.6,983.8,787.6z"/>
		</g>
	</g>
</g>
</svg>
